^F:\文件系统\项目\M300CONFIG\TH6800V1\TH6800CONFIGV1\CONNTMAIL.RESX|F:\文件系统\项目\M300CONFIG\TH6800V1\TH6800CONFIGV1\MAIN.RESX|F:\文件系统\项目\M300CONFIG\TH6800V1\TH6800CONFIGV1\PROPERTIES\RESOURCES.RESX
F:\文件系统\项目\M300CONFIG\TH6800V1\TH6800CONFIGV1\OBJ\X86\DEBUG\TH6800CONFIGV1.CONNTMAIL.RESOURCES
F:\文件系统\项目\M300CONFIG\TH6800V1\TH6800CONFIGV1\OBJ\X86\DEBUG\TH6800CONFIGV1.MAIN.RESOURCES
F:\文件系统\项目\M300CONFIG\TH6800V1\TH6800CONFIGV1\OBJ\X86\DEBUG\TH6800CONFIGV1.PROPERTIES.RESOURCES.RESOURCES
